Hello from rank 16, on nid005344. (core affinity = 8,136)
Hello from rank 30, on nid005344. (core affinity = 15,143)
Hello from rank 42, on nid005344. (core affinity = 21,149)
Hello from rank 22, on nid005344. (core affinity = 11,139)
Hello from rank 86, on nid005344. (core affinity = 43,171)
Hello from rank 28, on nid005344. (core affinity = 14,142)
Hello from rank 18, on nid005344. (core affinity = 9,137)
Hello from rank 228, on nid005345. (core affinity = 50,178)
Hello from rank 238, on nid005345. (core affinity = 55,183)
Hello from rank 165, on nid005345. (core affinity = 82,210)
Hello from rank 40, on nid005344. (core affinity = 20,148)
Hello from rank 32, on nid005344. (core affinity = 16,144)
Hello from rank 36, on nid005344. (core affinity = 18,146)
Hello from rank 38, on nid005344. (core affinity = 19,147)
Hello from rank 44, on nid005344. (core affinity = 22,150)
Hello from rank 148, on nid005345. (core affinity = 10,138)
Hello from rank 46, on nid005344. (core affinity = 23,151)
Hello from rank 104, on nid005344. (core affinity = 52,180)
Hello from rank 132, on nid005345. (core affinity = 2,130)
Hello from rank 87, on nid005344. (core affinity = 107,235)
Hello from rank 134, on nid005345. (core affinity = 3,131)
Hello from rank 54, on nid005344. (core affinity = 27,155)
Hello from rank 74, on nid005344. (core affinity = 37,165)
Hello from rank 136, on nid005345. (core affinity = 4,132)
Hello from rank 167, on nid005345. (core affinity = 83,211)
Hello from rank 23, on nid005344. (core affinity = 75,203)
Hello from rank 142, on nid005345. (core affinity = 7,135)
Hello from rank 95, on nid005344. (core affinity = 111,239)
Hello from rank 224, on nid005345. (core affinity = 48,176)
Hello from rank 226, on nid005345. (core affinity = 49,177)
Hello from rank 163, on nid005345. (core affinity = 81,209)
Hello from rank 100, on nid005344. (core affinity = 50,178)
Hello from rank 232, on nid005345. (core affinity = 52,180)
Hello from rank 156, on nid005345. (core affinity = 14,142)
Hello from rank 176, on nid005345. (core affinity = 24,152)
Hello from rank 130, on nid005345. (core affinity = 1,129)
Hello from rank 81, on nid005344. (core affinity = 104,232)
Hello from rank 43, on nid005344. (core affinity = 85,213)
Hello from rank 89, on nid005344. (core affinity = 108,236)
Hello from rank 150, on nid005345. (core affinity = 11,139)
Hello from rank 244, on nid005345. (core affinity = 58,186)
Hello from rank 189, on nid005345. (core affinity = 94,222)
Hello from rank 152, on nid005345. (core affinity = 12,140)
Hello from rank 144, on nid005345. (core affinity = 8,136)
Hello from rank 37, on nid005344. (core affinity = 82,210)
Hello from rank 39, on nid005344. (core affinity = 83,211)
Hello from rank 8, on nid005344. (core affinity = 4,132)
Hello from rank 209, on nid005345. (core affinity = 104,232)
Hello from rank 14, on nid005344. (core affinity = 7,135)
Hello from rank 76, on nid005344. (core affinity = 38,166)
Hello from rank 91, on nid005344. (core affinity = 109,237)
Hello from rank 105, on nid005344. (core affinity = 116,244)
Hello from rank 217, on nid005345. (core affinity = 108,236)
Hello from rank 133, on nid005345. (core affinity = 66,194)
Hello from rank 215, on nid005345. (core affinity = 107,235)
Hello from rank 71, on nid005344. (core affinity = 99,227)
Hello from rank 109, on nid005344. (core affinity = 118,246)
Hello from rank 6, on nid005344. (core affinity = 3,131)
Hello from rank 67, on nid005344. (core affinity = 97,225)
Hello from rank 177, on nid005345. (core affinity = 88,216)
Hello from rank 186, on nid005345. (core affinity = 29,157)
Hello from rank 196, on nid005345. (core affinity = 34,162)
Hello from rank 110, on nid005344. (core affinity = 55,183)
Hello from rank 250, on nid005345. (core affinity = 61,189)
Hello from rank 227, on nid005345. (core affinity = 113,241)
Hello from rank 185, on nid005345. (core affinity = 92,220)
Hello from rank 183, on nid005345. (core affinity = 91,219)
Hello from rank 88, on nid005344. (core affinity = 44,172)
Hello from rank 248, on nid005345. (core affinity = 60,188)
Hello from rank 225, on nid005345. (core affinity = 112,240)
Hello from rank 234, on nid005345. (core affinity = 53,181)
Hello from rank 236, on nid005345. (core affinity = 54,182)
Hello from rank 158, on nid005345. (core affinity = 15,143)
Hello from rank 138, on nid005345. (core affinity = 5,133)
Hello from rank 178, on nid005345. (core affinity = 25,153)
Hello from rank 33, on nid005344. (core affinity = 80,208)
Hello from rank 72, on nid005344. (core affinity = 36,164)
Hello from rank 47, on nid005344. (core affinity = 87,215)
Hello from rank 102, on nid005344. (core affinity = 51,179)
Hello from rank 56, on nid005344. (core affinity = 28,156)
Hello from rank 12, on nid005344. (core affinity = 6,134)
Hello from rank 154, on nid005345. (core affinity = 13,141)
Hello from rank 171, on nid005345. (core affinity = 85,213)
Hello from rank 11, on nid005344. (core affinity = 69,197)
Hello from rank 112, on nid005344. (core affinity = 56,184)
Hello from rank 240, on nid005345. (core affinity = 56,184)
Hello from rank 242, on nid005345. (core affinity = 57,185)
Hello from rank 114, on nid005344. (core affinity = 57,185)
Hello from rank 118, on nid005344. (core affinity = 59,187)
Hello from rank 92, on nid005344. (core affinity = 46,174)
Hello from rank 66, on nid005344. (core affinity = 33,161)
Hello from rank 180, on nid005345. (core affinity = 26,154)
Hello from rank 201, on nid005345. (core affinity = 100,228)
Hello from rank 141, on nid005345. (core affinity = 70,198)
Hello from rank 170, on nid005345. (core affinity = 21,149)
Hello from rank 64, on nid005344. (core affinity = 32,160)
Hello from rank 214, on nid005345. (core affinity = 43,171)
Hello from rank 25, on nid005344. (core affinity = 76,204)
Hello from rank 169, on nid005345. (core affinity = 84,212)
Hello from rank 78, on nid005344. (core affinity = 39,167)
Hello from rank 90, on nid005344. (core affinity = 45,173)
Hello from rank 70, on nid005344. (core affinity = 35,163)
Hello from rank 168, on nid005345. (core affinity = 20,148)
Hello from rank 212, on nid005345. (core affinity = 42,170)
Hello from rank 208, on nid005345. (core affinity = 40,168)
Hello from rank 106, on nid005344. (core affinity = 53,181)
Hello from rank 34, on nid005344. (core affinity = 17,145)
Hello from rank 48, on nid005344. (core affinity = 24,152)
Hello from rank 96, on nid005344. (core affinity = 48,176)
Hello from rank 197, on nid005345. (core affinity = 98,226)
Hello from rank 50, on nid005344. (core affinity = 25,153)
Hello from rank 122, on nid005344. (core affinity = 61,189)
Hello from rank 174, on nid005345. (core affinity = 23,151)
Hello from rank 131, on nid005345. (core affinity = 65,193)
Hello from rank 233, on nid005345. (core affinity = 116,244)
Hello from rank 20, on nid005344. (core affinity = 10,138)
Hello from rank 52, on nid005344. (core affinity = 26,154)
Hello from rank 119, on nid005344. (core affinity = 123,251)
Hello from rank 80, on nid005344. (core affinity = 40,168)
Hello from rank 113, on nid005344. (core affinity = 120,248)
Hello from rank 83, on nid005344. (core affinity = 105,233)
Hello from rank 68, on nid005344. (core affinity = 34,162)
Hello from rank 222, on nid005345. (core affinity = 47,175)
Hello from rank 58, on nid005344. (core affinity = 29,157)
Hello from rank 192, on nid005345. (core affinity = 32,160)
Hello from rank 164, on nid005345. (core affinity = 18,146)
Hello from rank 229, on nid005345. (core affinity = 114,242)
Hello from rank 57, on nid005344. (core affinity = 92,220)
Hello from rank 84, on nid005344. (core affinity = 42,170)
Hello from rank 143, on nid005345. (core affinity = 71,199)
Hello from rank 111, on nid005344. (core affinity = 119,247)
Hello from rank 4, on nid005344. (core affinity = 2,130)
Hello from rank 123, on nid005344. (core affinity = 125,253)
Hello from rank 182, on nid005345. (core affinity = 27,155)
Hello from rank 252, on nid005345. (core affinity = 62,190)
Hello from rank 69, on nid005344. (core affinity = 98,226)
Hello from rank 172, on nid005345. (core affinity = 22,150)
Hello from rank 173, on nid005345. (core affinity = 86,214)
Hello from rank 191, on nid005345. (core affinity = 95,223)
Hello from rank 5, on nid005344. (core affinity = 66,194)
Hello from rank 98, on nid005344. (core affinity = 49,177)
Hello from rank 198, on nid005345. (core affinity = 35,163)
Hello from rank 160, on nid005345. (core affinity = 16,144)
Hello from rank 184, on nid005345. (core affinity = 28,156)
Hello from rank 73, on nid005344. (core affinity = 100,228)
Hello from rank 3, on nid005344. (core affinity = 65,193)
Hello from rank 45, on nid005344. (core affinity = 86,214)
Hello from rank 99, on nid005344. (core affinity = 113,241)
Hello from rank 103, on nid005344. (core affinity = 115,243)
Hello from rank 126, on nid005344. (core affinity = 63,191)
Hello from rank 85, on nid005344. (core affinity = 106,234)
Hello from rank 65, on nid005344. (core affinity = 96,224)
Hello from rank 41, on nid005344. (core affinity = 84,212)
Hello from rank 63, on nid005344. (core affinity = 95,223)
Hello from rank 140, on nid005345. (core affinity = 6,134)
Hello from rank 179, on nid005345. (core affinity = 89,217)
Hello from rank 190, on nid005345. (core affinity = 31,159)
Hello from rank 195, on nid005345. (core affinity = 97,225)
Hello from rank 202, on nid005345. (core affinity = 37,165)
Hello from rank 206, on nid005345. (core affinity = 39,167)
Hello from rank 2, on nid005344. (core affinity = 1,129)
Hello from rank 213, on nid005345. (core affinity = 106,234)
Hello from rank 82, on nid005344. (core affinity = 41,169)
Hello from rank 147, on nid005345. (core affinity = 73,201)
Hello from rank 75, on nid005344. (core affinity = 101,229)
Hello from rank 77, on nid005344. (core affinity = 102,230)
Hello from rank 243, on nid005345. (core affinity = 121,249)
Hello from rank 207, on nid005345. (core affinity = 103,231)
Hello from rank 181, on nid005345. (core affinity = 90,218)
Hello from rank 7, on nid005344. (core affinity = 67,195)
Hello from rank 162, on nid005345. (core affinity = 17,145)
Hello from rank 94, on nid005344. (core affinity = 47,175)
Hello from rank 107, on nid005344. (core affinity = 117,245)
Hello from rank 146, on nid005345. (core affinity = 9,137)
Hello from rank 137, on nid005345. (core affinity = 68,196)
Hello from rank 139, on nid005345. (core affinity = 69,197)
Hello from rank 31, on nid005344. (core affinity = 79,207)
Hello from rank 245, on nid005345. (core affinity = 122,250)
Hello from rank 157, on nid005345. (core affinity = 78,206)
Hello from rank 60, on nid005344. (core affinity = 30,158)
Hello from rank 55, on nid005344. (core affinity = 91,219)
Hello from rank 205, on nid005345. (core affinity = 102,230)
Hello from rank 24, on nid005344. (core affinity = 12,140)
Hello from rank 108, on nid005344. (core affinity = 54,182)
Hello from rank 124, on nid005344. (core affinity = 62,190)
Hello from rank 13, on nid005344. (core affinity = 70,198)
Hello from rank 62, on nid005344. (core affinity = 31,159)
Hello from rank 219, on nid005345. (core affinity = 109,237)
Hello from rank 120, on nid005344. (core affinity = 60,188)
Hello from rank 221, on nid005345. (core affinity = 110,238)
Hello from rank 93, on nid005344. (core affinity = 110,238)
Hello from rank 116, on nid005344. (core affinity = 58,186)
Hello from rank 166, on nid005345. (core affinity = 19,147)
Hello from rank 220, on nid005345. (core affinity = 46,174)
Hello from rank 188, on nid005345. (core affinity = 30,158)
Hello from rank 230, on nid005345. (core affinity = 51,179)
Hello from rank 199, on nid005345. (core affinity = 99,227)
Hello from rank 254, on nid005345. (core affinity = 63,191)
Hello from rank 246, on nid005345. (core affinity = 59,187)
Hello from rank 79, on nid005344. (core affinity = 103,231)
Hello from rank 128, on nid005345. (core affinity = 0,128)
Hello from rank 218, on nid005345. (core affinity = 45,173)
Hello from rank 175, on nid005345. (core affinity = 87,215)
Hello from rank 187, on nid005345. (core affinity = 93,221)
Hello from rank 59, on nid005344. (core affinity = 93,221)
Hello from rank 10, on nid005344. (core affinity = 5,133)
Hello from rank 121, on nid005344. (core affinity = 124,252)
Hello from rank 26, on nid005344. (core affinity = 13,141)
Hello from rank 0, on nid005344. (core affinity = 0,128)
Hello from rank 61, on nid005344. (core affinity = 94,222)
Hello from rank 97, on nid005344. (core affinity = 112,240)
Hello from rank 35, on nid005344. (core affinity = 81,209)
Hello from rank 101, on nid005344. (core affinity = 114,242)
Hello from rank 49, on nid005344. (core affinity = 88,216)
Hello from rank 53, on nid005344. (core affinity = 90,218)
Hello from rank 125, on nid005344. (core affinity = 126,254)
Hello from rank 117, on nid005344. (core affinity = 122,250)
Hello from rank 115, on nid005344. (core affinity = 121,249)
Hello from rank 51, on nid005344. (core affinity = 89,217)
Hello from rank 127, on nid005344. (core affinity = 127,255)
Hello from rank 161, on nid005345. (core affinity = 80,208)
Hello from rank 194, on nid005345. (core affinity = 33,161)
Hello from rank 210, on nid005345. (core affinity = 41,169)
Hello from rank 216, on nid005345. (core affinity = 44,172)
Hello from rank 223, on nid005345. (core affinity = 111,239)
Hello from rank 200, on nid005345. (core affinity = 36,164)
Hello from rank 204, on nid005345. (core affinity = 38,166)
Hello from rank 211, on nid005345. (core affinity = 105,233)
Hello from rank 193, on nid005345. (core affinity = 96,224)
Hello from rank 17, on nid005344. (core affinity = 72,200)
Hello from rank 203, on nid005345. (core affinity = 101,229)
Hello from rank 29, on nid005344. (core affinity = 78,206)
Hello from rank 253, on nid005345. (core affinity = 126,254)
Hello from rank 155, on nid005345. (core affinity = 77,205)
Hello from rank 235, on nid005345. (core affinity = 117,245)
Hello from rank 19, on nid005344. (core affinity = 73,201)
Hello from rank 153, on nid005345. (core affinity = 76,204)
Hello from rank 1, on nid005344. (core affinity = 64,192)
Hello from rank 9, on nid005344. (core affinity = 68,196)
Hello from rank 249, on nid005345. (core affinity = 124,252)
Hello from rank 15, on nid005344. (core affinity = 71,199)
Hello from rank 247, on nid005345. (core affinity = 123,251)
Hello from rank 21, on nid005344. (core affinity = 74,202)
Hello from rank 231, on nid005345. (core affinity = 115,243)
Hello from rank 135, on nid005345. (core affinity = 67,195)
Hello from rank 145, on nid005345. (core affinity = 72,200)
Hello from rank 149, on nid005345. (core affinity = 74,202)
Hello from rank 151, on nid005345. (core affinity = 75,203)
Hello from rank 159, on nid005345. (core affinity = 79,207)
Hello from rank 241, on nid005345. (core affinity = 120,248)
Hello from rank 251, on nid005345. (core affinity = 125,253)
Hello from rank 255, on nid005345. (core affinity = 127,255)
Hello from rank 129, on nid005345. (core affinity = 64,192)
Hello from rank 237, on nid005345. (core affinity = 118,246)
Hello from rank 27, on nid005344. (core affinity = 77,205)
Hello from rank 239, on nid005345. (core affinity = 119,247)
